[
  {
    "index": 0,
    "published": 1909,
    "author": "Riddle Obrien",
    "name": "Janine Kim",
    "country": "Puerto Rico",
    "about": "Sit veniam amet Lorem proident et nulla do tempor reprehenderit mollit aute sunt sint incididunt. Ut consequat sunt non ex non cupidatat ipsum cillum magna occaecat occaecat ad esse. Esse laboris anim cillum irure. Commodo sunt fugiat tempor velit deserunt reprehenderit consequat.\r\n"
  },
  {
    "index": 1,
    "published": 1962,
    "author": "Hilda Garza",
    "name": "Curtis Manning",
    "country": "Delaware",
    "about": "Occaecat anim officia nulla occaecat consectetur culpa dolore nisi in sit incididunt irure aliqua. Ea quis laborum cillum in duis deserunt quis ut. Sunt mollit cupidatat ullamco cupidatat non. Dolor culpa nulla velit amet exercitation incididunt do. Non adipisicing do enim amet. Nostrud ipsum exercitation consectetur mollit voluptate culpa eiusmod.\r\n"
  },
  {
    "index": 2,
    "published": 1910,
    "author": "Curry Craig",
    "name": "Charmaine Stanley",
    "country": "Massachusetts",
    "about": "Laboris ut culpa laboris sunt adipisicing Lorem ex incididunt commodo voluptate laboris. Pariatur adipisicing sunt reprehenderit officia veniam reprehenderit. Qui pariatur ea laborum et. Eiusmod cillum velit dolor fugiat Lorem fugiat eu ex elit aliquip velit sint. Cupidatat do nisi qui enim magna commodo.\r\n"
  },
  {
    "index": 3,
    "published": 1964,
    "author": "Nixon Schneider",
    "name": "Gilda Reyes",
    "country": "Arkansas",
    "about": "Cupidatat tempor sit anim nisi amet. In consequat sunt aliquip velit qui consectetur amet culpa adipisicing. Ullamco deserunt anim esse do laborum aliquip aute ea tempor irure ea minim quis et. Consequat in ex et incididunt esse et veniam eiusmod amet laborum in commodo ex. Nulla cupidatat tempor veniam fugiat reprehenderit adipisicing commodo enim est magna. Aute id amet ullamco ipsum fugiat occaecat consequat sit eu. Mollit consectetur culpa nisi non aute.\r\n"
  },
  {
    "index": 4,
    "published": 1954,
    "author": "Meyer Pruitt",
    "name": "Rosemary Dean",
    "country": "Indiana",
    "about": "Reprehenderit proident nostrud commodo duis dolore est dolor aute nisi anim cupidatat excepteur. Officia aliquip exercitation in ex dolore ea duis voluptate excepteur ex sint commodo officia. Voluptate amet enim commodo ea excepteur enim eiusmod aliqua laboris. Duis anim fugiat laboris ad fugiat exercitation ut ad adipisicing irure est ipsum ullamco. Enim proident veniam do non cillum sint sunt amet eiusmod. Aute culpa mollit incididunt eu eu velit amet est. Do ea aute amet duis qui mollit ut anim id.\r\n"
  },
  {
    "index": 5,
    "published": 1958,
    "author": "Nita Conley",
    "name": "Ingrid Harris",
    "country": "Nebraska",
    "about": "Tempor occaecat cillum ipsum nisi officia laborum ea tempor adipisicing. Id quis minim est ullamco ipsum ut duis irure eu dolor. Sunt ullamco consequat pariatur ut sunt do. Minim et elit excepteur amet et et amet sint ut.\r\n"
  },
  {
    "index": 6,
    "published": 1906,
    "author": "Cochran Hahn",
    "name": "Gonzales Blankenship",
    "country": "Oregon",
    "about": "Sint nostrud aliquip mollit ad. Pariatur nostrud ipsum ullamco irure magna nulla non nulla in Lorem consectetur mollit reprehenderit. Eiusmod voluptate incididunt nostrud do veniam consequat ut. Anim adipisicing cupidatat ut officia minim laborum velit eiusmod non. Fugiat voluptate ea eu occaecat officia. Aliqua laboris aliquip eu elit occaecat enim nisi sunt dolore reprehenderit do eiusmod. Aute ad duis Lorem excepteur duis ex velit non ipsum sit.\r\n"
  },
  {
    "index": 7,
    "published": 1979,
    "author": "Hansen Rich",
    "name": "Massey Lynch",
    "country": "Alaska",
    "about": "Dolore incididunt minim incididunt commodo quis labore magna. Exercitation proident nisi quis quis exercitation nulla mollit commodo cillum. Cillum et deserunt aute culpa cupidatat excepteur consectetur. Do ad esse eu tempor aliquip veniam duis magna mollit cillum nisi. Sit enim aliqua nostrud Lorem proident elit in aute commodo culpa.\r\n"
  },
  {
    "index": 8,
    "published": 1951,
    "author": "Charlotte Hendrix",
    "name": "Lesley Roth",
    "country": "Virginia",
    "about": "Dolor fugiat fugiat eiusmod ipsum occaecat ad dolor dolore sunt id quis. Nulla reprehenderit amet ea sunt duis amet occaecat dolor pariatur amet irure fugiat. Irure laborum laborum quis exercitation.\r\n"
  },
  {
    "index": 9,
    "published": 1963,
    "author": "Daniels Rollins",
    "name": "Sherri Downs",
    "country": "South Dakota",
    "about": "Mollit aute est ullamco do labore. Irure mollit quis nostrud officia ad nisi dolore amet. Excepteur proident cillum in Lorem occaecat ullamco excepteur esse magna Lorem aliqua. Ullamco Lorem consectetur nostrud elit irure veniam occaecat eiusmod proident pariatur ipsum veniam cupidatat. Amet voluptate nostrud amet in reprehenderit reprehenderit mollit qui. Laboris cillum elit sunt eu elit ad duis. Et eu ullamco exercitation ipsum ipsum fugiat pariatur occaecat voluptate cupidatat.\r\n"
  },
  {
    "index": 10,
    "published": 1936,
    "author": "Kristine Ayala",
    "name": "Alma Blackwell",
    "country": "Mississippi",
    "about": "Non deserunt reprehenderit voluptate mollit. Cupidatat exercitation fugiat ea commodo nostrud enim ad exercitation culpa sint. Irure enim culpa cillum cupidatat pariatur labore dolor sunt mollit sit mollit qui.\r\n"
  },
  {
    "index": 11,
    "published": 1968,
    "author": "Aurora Henderson",
    "name": "Boone Slater",
    "country": "Connecticut",
    "about": "Magna eu dolor nisi consectetur sunt voluptate. Nisi ut velit magna proident enim nulla exercitation reprehenderit nulla elit fugiat. Amet excepteur officia excepteur culpa anim. Quis nulla do dolor pariatur ad elit in amet nulla labore. Nulla do labore dolor adipisicing velit aute amet qui cillum consectetur qui magna consequat. Culpa proident esse proident dolore.\r\n"
  },
  {
    "index": 12,
    "published": 1958,
    "author": "Alyson Vance",
    "name": "Kaye Whitfield",
    "country": "Northern Mariana Islands",
    "about": "Dolore duis enim amet dolor ullamco. Dolor enim exercitation fugiat anim non magna enim minim culpa. Consequat ad minim incididunt ad reprehenderit voluptate. Nisi exercitation ullamco velit ad voluptate mollit.\r\n"
  },
  {
    "index": 13,
    "published": 1974,
    "author": "Holden Doyle",
    "name": "Goldie Hull",
    "country": "Michigan",
    "about": "Duis anim in amet nulla. Non enim aute labore aute et dolore exercitation id. Dolor voluptate aliqua magna magna cupidatat exercitation reprehenderit sunt proident ut. Occaecat proident veniam commodo fugiat enim sint eiusmod proident labore commodo dolor.\r\n"
  },
  {
    "index": 14,
    "published": 1931,
    "author": "Nanette Galloway",
    "name": "Valenzuela Marks",
    "country": "Idaho",
    "about": "Culpa tempor dolore culpa sunt excepteur enim ipsum dolore sunt duis nisi fugiat exercitation. Mollit Lorem sit anim cillum in irure reprehenderit dolor qui et dolore. Nisi enim minim occaecat eiusmod dolore quis. Minim ea minim deserunt eiusmod aute sunt eu incididunt aliquip nostrud velit. Do laborum nisi anim ea aliqua. Sit elit commodo dolor sunt.\r\n"
  },
  {
    "index": 15,
    "published": 1966,
    "author": "Joanne Sexton",
    "name": "Myrtle Holman",
    "country": "Hawaii",
    "about": "Voluptate occaecat sit proident exercitation consectetur excepteur. Reprehenderit amet occaecat anim magna laboris occaecat ullamco in aute minim non amet. Excepteur deserunt enim aliqua voluptate. Proident veniam et commodo non commodo. Anim duis ipsum ea in Lorem. Aliquip ullamco Lorem ut laborum qui dolor laborum. Et pariatur cupidatat cillum nisi reprehenderit.\r\n"
  },
  {
    "index": 16,
    "published": 1967,
    "author": "Gertrude Burks",
    "name": "Golden Knight",
    "country": "Rhode Island",
    "about": "Magna pariatur ipsum non ad quis et laboris incididunt qui elit ea laboris. Velit qui anim sit exercitation voluptate fugiat consectetur laborum enim cupidatat ullamco ex. Proident quis occaecat esse mollit incididunt irure reprehenderit elit elit proident aliqua do do. Id tempor non duis commodo ullamco tempor sint magna incididunt.\r\n"
  },
  {
    "index": 17,
    "published": 1976,
    "author": "Chapman Michael",
    "name": "Roberson Wong",
    "country": "North Dakota",
    "about": "Ut eiusmod irure minim laboris irure anim. Culpa mollit dolor tempor culpa cupidatat est pariatur enim velit nulla in aliquip non. Qui culpa sit tempor nostrud incididunt commodo enim fugiat adipisicing eu veniam. Laboris aute eiusmod commodo est nisi do labore consectetur nostrud ullamco aute.\r\n"
  },
  {
    "index": 18,
    "published": 1943,
    "author": "Cardenas Medina",
    "name": "Mccullough West",
    "country": "Maryland",
    "about": "Minim occaecat labore esse amet eu pariatur consequat dolor eu enim fugiat quis. Adipisicing ullamco nisi cillum tempor Lorem minim voluptate nisi minim eu aute est non duis. Consectetur sunt consequat ut voluptate incididunt. Occaecat incididunt anim do pariatur magna dolor cupidatat sunt ex. Laborum duis consequat non ut labore cupidatat cupidatat exercitation. Nostrud duis veniam est excepteur laboris excepteur ex elit ea aute aliqua ex. Sit ut fugiat consequat aliquip fugiat.\r\n"
  },
  {
    "index": 19,
    "published": 1953,
    "author": "Angel Flynn",
    "name": "Love Randall",
    "country": "Kansas",
    "about": "Veniam ex dolor eiusmod in. Sit qui aliquip eu consectetur occaecat ipsum consequat consectetur reprehenderit quis sit do. Aute laboris sunt ea culpa cillum reprehenderit minim proident tempor commodo. Ex enim adipisicing excepteur adipisicing. Nisi non irure id tempor. Cupidatat adipisicing velit pariatur duis laboris commodo nostrud consectetur sint reprehenderit qui qui deserunt.\r\n"
  },
  {
    "index": 20,
    "published": 1947,
    "author": "Rosanna Ballard",
    "name": "Short Clark",
    "country": "Wyoming",
    "about": "Excepteur mollit ea pariatur consectetur reprehenderit eu quis enim nostrud laborum dolor dolor nostrud. Fugiat pariatur dolore do pariatur magna dolore non velit Lorem minim et elit. Sint exercitation labore labore minim consequat ex eiusmod sit occaecat ea magna. Ex dolore laborum do eu anim mollit id quis minim tempor. Eiusmod reprehenderit aliqua aliqua ipsum ut pariatur est voluptate sit. Officia dolore ad tempor velit.\r\n"
  },
  {
    "index": 21,
    "published": 1987,
    "author": "Calderon Carver",
    "name": "Camille Hardy",
    "country": "Alabama",
    "about": "Pariatur irure deserunt ut minim magna est excepteur anim labore sunt exercitation. Ipsum ad dolore commodo ullamco voluptate dolor quis adipisicing veniam dolor occaecat culpa irure quis. Aute tempor ex eiusmod deserunt est velit magna non adipisicing sint. Esse excepteur Lorem aliqua eu qui in ad proident velit pariatur amet excepteur duis deserunt.\r\n"
  },
  {
    "index": 22,
    "published": 1964,
    "author": "Christy Blair",
    "name": "Nicole Dejesus",
    "country": "Tennessee",
    "about": "Exercitation sit tempor enim proident magna. Sunt magna enim nisi veniam. Non minim tempor commodo aliqua minim sunt veniam.\r\n"
  },
  {
    "index": 23,
    "published": 1910,
    "author": "Foley Sellers",
    "name": "Mcneil Garrett",
    "country": "Ohio",
    "about": "Cupidatat laborum sint labore Lorem officia Lorem magna excepteur laborum elit tempor. Deserunt dolore veniam aute non ea amet duis sunt ea est voluptate voluptate. Qui sit pariatur velit ut qui sint nostrud est excepteur anim sit. Esse eu veniam et nulla eu commodo ex esse eu magna sit exercitation irure est.\r\n"
  },
  {
    "index": 24,
    "published": 1921,
    "author": "Coleman Cline",
    "name": "Alexander Short",
    "country": "Kentucky",
    "about": "Ex dolor qui amet dolor fugiat qui nisi esse Lorem esse. Exercitation nulla excepteur nisi et eiusmod occaecat ipsum reprehenderit nulla ad incididunt aute. Commodo reprehenderit velit amet ex eiusmod excepteur ullamco fugiat ea.\r\n"
  }
]